{'Color_frame': 344,
 'Total_frame': 626,
 'color': 'black',
 'color_param': [24, 77, 117],
 'f1_score': 0.129,
 'filtratio': 0.7189492500984267,
 'fn': 0.015,
 'fp': 0.688,
 'roiScale': 7.031673497005908,
 'thr': 0.3159110002194021}
{'Color_frame': 344,
 'Total_frame': 626,
 'color': 'black',
 'color_param': [16, 51, 117],
 'f1_score': 0.117,
 'filtratio': 0.7498234937478305,
 'fn': 0.02,
 'fp': 0.621,
 'roiScale': 9.487155911728197,
 'thr': 0.488271977152967}
{'Color_frame': 320,
 'Total_frame': 1227,
 'color': 'black',
 'color_param': [26, 54, 106],
 'f1_score': 0.086,
 'filtratio': 0.7301151324696626,
 'fn': 0.297,
 'fp': 0.127,
 'roiScale': 9.497001947996075,
 'thr': 0.5495088901592049}
{'Color_frame': 320,
 'Total_frame': 1227,
 'color': 'black',
 'color_param': [19, 52, 108],
 'f1_score': 0.055,
 'filtratio': 0.5882830167370763,
 'fn': 0.147,
 'fp': 0.266,
 'roiScale': 9.840569173626072,
 'thr': 0.578269810176484}
{'Color_frame': 320,
 'Total_frame': 1227,
 'color': 'black',
 'color_param': [22, 78, 102],
 'f1_score': 0.051,
 'filtratio': 0.6937800359614082,
 'fn': 0.163,
 'fp': 0.154,
 'roiScale': 6.196396059116717,
 'thr': 0.566763717460097}
{'Color_frame': 320,
 'Total_frame': 1227,
 'color': 'black',
 'color_param': [16, 59, 93],
 'f1_score': 0.04,
 'filtratio': 0.6414574998438722,
 'fn': 0.106,
 'fp': 0.229,
 'roiScale': 9.771658745381822,
 'thr': 0.47268891895233645}
{'Color_frame': 320,
 'Total_frame': 1227,
 'color': 'black',
 'color_param': [20, 79, 91],
 'f1_score': 0.033,
 'filtratio': 0.6015575195318251,
 'fn': 0.047,
 'fp': 0.41,
 'roiScale': 9.793262632339715,
 'thr': 0.39808206500929355}
