{'Color_frame': 133,
 'Total_frame': 953,
 'color': 'blue',
 'color_param': [73, 46, 45, 115],
 'f1_score': 0.138,
 'filtratio': 0.6906277667253737,
 'fn': 1.0,
 'fp': 0.0,
 'roiScale': 5.094718865517243,
 'thr': 0.27704333916210633}
{'Color_frame': 133,
 'Total_frame': 953,
 'color': 'blue',
 'color_param': [42, 93, 31, 117],
 'f1_score': 0.14,
 'filtratio': 0.7267405379819878,
 'fn': 0.97,
 'fp': 0.045,
 'roiScale': 5.369794756607052,
 'thr': 0.12086431398870365}
{'Color_frame': 133,
 'Total_frame': 953,
 'color': 'blue',
 'color_param': [71, 82, 57, 126],
 'f1_score': 0.138,
 'filtratio': 0.5227205846809335,
 'fn': 1.0,
 'fp': 0.0,
 'roiScale': 9.057815749619873,
 'thr': 0.19876925013612531}
{'Color_frame': 133,
 'Total_frame': 953,
 'color': 'blue',
 'color_param': [74, 94, 73, 122],
 'f1_score': 0.138,
 'filtratio': 0.5370564159464868,
 'fn': 0.992,
 'fp': 0.004,
 'roiScale': 7.614752872750245,
 'thr': 0.2030616741405754}
{'Color_frame': 133,
 'Total_frame': 953,
 'color': 'blue',
 'color_param': [64, 91, 31, 127],
 'f1_score': 0.137,
 'filtratio': 0.5919469134296058,
 'fn': 0.97,
 'fp': 0.023,
 'roiScale': 8.752925265911149,
 'thr': 0.13819435098559482}
{'Color_frame': 133,
 'Total_frame': 953,
 'color': 'blue',
 'color_param': [68, 94, 39, 130],
 'f1_score': 0.137,
 'filtratio': 0.7156987243547963,
 'fn': 0.985,
 'fp': 0.004,
 'roiScale': 8.366342679741843,
 'thr': 0.2572195532665774}
{'Color_frame': 133,
 'Total_frame': 953,
 'color': 'blue',
 'color_param': [68, 94, 30, 130],
 'f1_score': 0.135,
 'filtratio': 0.7484909719309202,
 'fn': 0.97,
 'fp': 0.01,
 'roiScale': 8.35738513417415,
 'thr': 0.1819650149893841}
{'Color_frame': 133,
 'Total_frame': 953,
 'color': 'blue',
 'color_param': [68, 94, 30, 140],
 'f1_score': 0.135,
 'filtratio': 0.7150229181843413,
 'fn': 0.97,
 'fp': 0.009,
 'roiScale': 4.508149511948082,
 'thr': 0.1926298360650186}
{'Color_frame': 214,
 'Total_frame': 1087,
 'color': 'blue',
 'color_param': [48, 83, 30, 142],
 'f1_score': 0.196,
 'filtratio': 0.7486241787205474,
 'fn': 1.0,
 'fp': 0.006,
 'roiScale': 8.159425420461101,
 'thr': 0.11166283900016702}
{'Color_frame': 214,
 'Total_frame': 1087,
 'color': 'blue',
 'color_param': [39, 74, 60, 125],
 'f1_score': 0.195,
 'filtratio': 0.566754795156645,
 'fn': 1.0,
 'fp': 0.0,
 'roiScale': 4.528304193555761,
 'thr': 0.39514528746186395}
{'Color_frame': 214,
 'Total_frame': 1087,
 'color': 'blue',
 'color_param': [66, 94, 32, 133],
 'f1_score': 0.195,
 'filtratio': 0.6666828072372003,
 'fn': 0.995,
 'fp': 0.002,
 'roiScale': 5.1788054432682635,
 'thr': 0.28266375076711947}
{'Color_frame': 214,
 'Total_frame': 1087,
 'color': 'blue',
 'color_param': [61, 92, 76, 134],
 'f1_score': 0.194,
 'filtratio': 0.5203793640296386,
 'fn': 0.995,
 'fp': 0.0,
 'roiScale': 7.35377757503414,
 'thr': 0.244223346116802}
{'Color_frame': 214,
 'Total_frame': 1087,
 'color': 'blue',
 'color_param': [75, 126, 38, 121],
 'f1_score': 0.09,
 'filtratio': 0.7373999002713789,
 'fn': 0.453,
 'fp': 0.017,
 'roiScale': 4.782827604567128,
 'thr': 0.3889352082962033}
{'Color_frame': 214,
 'Total_frame': 1087,
 'color': 'blue',
 'color_param': [81, 125, 67, 123],
 'f1_score': 0.088,
 'filtratio': 0.6637313676657097,
 'fn': 0.449,
 'fp': 0.0,
 'roiScale': 4.2428833170325495,
 'thr': 0.32200127342316687}
{'Color_frame': 214,
 'Total_frame': 1087,
 'color': 'blue',
 'color_param': [79, 139, 79, 138],
 'f1_score': 0.076,
 'filtratio': 0.5568869064619377,
 'fn': 0.383,
 'fp': 0.014,
 'roiScale': 5.942155609006804,
 'thr': 0.12822093716349656}
{'Color_frame': 214,
 'Total_frame': 1087,
 'color': 'blue',
 'color_param': [78, 121, 41, 117],
 'f1_score': 0.072,
 'filtratio': 0.5272657358031476,
 'fn': 0.364,
 'fp': 0.021,
 'roiScale': 6.451592178368195,
 'thr': 0.3196038972288847}
{'Color_frame': 214,
 'Total_frame': 1087,
 'color': 'blue',
 'color_param': [79, 122, 46, 117],
 'f1_score': 0.043,
 'filtratio': 0.7050855340177715,
 'fn': 0.201,
 'fp': 0.082,
 'roiScale': 5.206187539169603,
 'thr': 0.11049841914253436}
{'Color_frame': 214,
 'Total_frame': 1087,
 'color': 'blue',
 'color_param': [83, 120, 45, 115],
 'f1_score': 0.041,
 'filtratio': 0.7344083475299068,
 'fn': 0.192,
 'fp': 0.088,
 'roiScale': 6.424449338593521,
 'thr': 0.10375321247360161}
{'Color_frame': 214,
 'Total_frame': 1087,
 'color': 'blue',
 'color_param': [84, 123, 44, 115],
 'f1_score': 0.04,
 'filtratio': 0.745773830498668,
 'fn': 0.192,
 'fp': 0.069,
 'roiScale': 7.824048453859556,
 'thr': 0.13111129923469858}
{'Color_frame': 214,
 'Total_frame': 1087,
 'color': 'blue',
 'color_param': [85, 128, 39, 117],
 'f1_score': 0.039,
 'filtratio': 0.678484973754875,
 'fn': 0.182,
 'fp': 0.088,
 'roiScale': 5.5752775922653655,
 'thr': 0.1229207748966831}
{'Color_frame': 214,
 'Total_frame': 1087,
 'color': 'blue',
 'color_param': [86, 123, 42, 116],
 'f1_score': 0.038,
 'filtratio': 0.7116212652729516,
 'fn': 0.178,
 'fp': 0.086,
 'roiScale': 8.10298131355023,
 'thr': 0.1167985268016557}
{'Color_frame': 214,
 'Total_frame': 1087,
 'color': 'blue',
 'color_param': [86, 123, 43, 116],
 'f1_score': 0.038,
 'filtratio': 0.7216172913855059,
 'fn': 0.178,
 'fp': 0.082,
 'roiScale': 9.80529384560738,
 'thr': 0.11747181802258067}
{'Color_frame': 214,
 'Total_frame': 1087,
 'color': 'blue',
 'color_param': [87, 122, 38, 115],
 'f1_score': 0.038,
 'filtratio': 0.6621614547149166,
 'fn': 0.173,
 'fp': 0.103,
 'roiScale': 8.14603422198735,
 'thr': 0.10517338891963454}
{'Color_frame': 214,
 'Total_frame': 1087,
 'color': 'blue',
 'color_param': [87, 121, 35, 115],
 'f1_score': 0.037,
 'filtratio': 0.7188535292197712,
 'fn': 0.168,
 'fp': 0.116,
 'roiScale': 8.219072527376698,
 'thr': 0.10850054490691285}
{'Color_frame': 214,
 'Total_frame': 1087,
 'color': 'blue',
 'color_param': [85, 124, 38, 115],
 'f1_score': 0.037,
 'filtratio': 0.733234244537095,
 'fn': 0.168,
 'fp': 0.11,
 'roiScale': 8.01147518255361,
 'thr': 0.10721513063744072}
{'Color_frame': 214,
 'Total_frame': 1087,
 'color': 'blue',
 'color_param': [86, 125, 38, 115],
 'f1_score': 0.037,
 'filtratio': 0.7324486718659955,
 'fn': 0.168,
 'fp': 0.107,
 'roiScale': 7.521320480997933,
 'thr': 0.10136448385570955}
{'Color_frame': 214,
 'Total_frame': 1087,
 'color': 'blue',
 'color_param': [88, 127, 38, 115],
 'f1_score': 0.036,
 'filtratio': 0.6157558607447172,
 'fn': 0.168,
 'fp': 0.099,
 'roiScale': 7.595277112143087,
 'thr': 0.10024823044868973}
{'Color_frame': 214,
 'Total_frame': 1087,
 'color': 'blue',
 'color_param': [89, 137, 43, 115],
 'f1_score': 0.036,
 'filtratio': 0.5690455278344637,
 'fn': 0.173,
 'fp': 0.069,
 'roiScale': 8.239723461704166,
 'thr': 0.12812505717925177}
{'Color_frame': 214,
 'Total_frame': 1087,
 'color': 'blue',
 'color_param': [89, 138, 44, 115],
 'f1_score': 0.036,
 'filtratio': 0.5947070895273201,
 'fn': 0.173,
 'fp': 0.068,
 'roiScale': 7.2719873479022015,
 'thr': 0.12483172025308087}
{'Color_frame': 214,
 'Total_frame': 1087,
 'color': 'blue',
 'color_param': [89, 139, 45, 115],
 'f1_score': 0.036,
 'filtratio': 0.6415230748180497,
 'fn': 0.173,
 'fp': 0.062,
 'roiScale': 6.752699646908152,
 'thr': 0.12938677616164052}
